hw/unit_tests/raster_unit/req_switch/waveform.vcd
$version Generated by VerilatedVcd $end
$date Mon Mar 14 00:45:06 2022
 $end
$timescale   1ps $end

 $scope module TOP $end
  $var wire  1 7! clk $end
  $var wire 32 <! edge_func_val(0) [31:0] $end
  $var wire 32 =! edge_func_val(1) [31:0] $end
  $var wire 32 >! edge_func_val(2) [31:0] $end
  $var wire  1 9! input_valid $end
  $var wire 32 ?! mem_base_addr [31:0] $end
  $var wire 32 X! mem_req_addr(0) [31:0] $end
  $var wire 32 Y! mem_req_addr(1) [31:0] $end
  $var wire 32 Z! mem_req_addr(2) [31:0] $end
  $var wire 32 [! mem_req_addr(3) [31:0] $end
  $var wire 32 \! mem_req_addr(4) [31:0] $end
  $var wire 32 ]! mem_req_addr(5) [31:0] $end
  $var wire 32 ^! mem_req_addr(6) [31:0] $end
  $var wire 32 _! mem_req_addr(7) [31:0] $end
  $var wire 32 `! mem_req_addr(8) [31:0] $end
  $var wire  1 V! mem_req_ready $end
  $var wire  1 U! mem_req_valid $end
  $var wire 32 a! mem_rsp_data(0) [31:0] $end
  $var wire 32 b! mem_rsp_data(1) [31:0] $end
  $var wire 32 c! mem_rsp_data(2) [31:0] $end
  $var wire 32 d! mem_rsp_data(3) [31:0] $end
  $var wire 32 e! mem_rsp_data(4) [31:0] $end
  $var wire 32 f! mem_rsp_data(5) [31:0] $end
  $var wire 32 g! mem_rsp_data(6) [31:0] $end
  $var wire 32 h! mem_rsp_data(7) [31:0] $end
  $var wire 32 i! mem_rsp_data(8) [31:0] $end
  $var wire  1 W! mem_rsp_valid $end
  $var wire 32 @! mem_stride [31:0] $end
  $var wire 32 M! out_edge_func_val(0) [31:0] $end
  $var wire 32 N! out_edge_func_val(1) [31:0] $end
  $var wire 32 O! out_edge_func_val(2) [31:0] $end
  $var wire 32 D! out_edges(0)(0) [31:0] $end
  $var wire 32 E! out_edges(0)(1) [31:0] $end
  $var wire 32 F! out_edges(0)(2) [31:0] $end
  $var wire 32 G! out_edges(1)(0) [31:0] $end
  $var wire 32 H! out_edges(1)(1) [31:0] $end
  $var wire 32 I! out_edges(1)(2) [31:0] $end
  $var wire 32 J! out_edges(2)(0) [31:0] $end
  $var wire 32 K! out_edges(2)(1) [31:0] $end
  $var wire 32 L! out_edges(2)(2) [31:0] $end
  $var wire 32 P! out_extents(0) [31:0] $end
  $var wire 32 Q! out_extents(1) [31:0] $end
  $var wire 32 R! out_extents(2) [31:0] $end
  $var wire  2 S! out_slice_index [1:0] $end
  $var wire 16 B! out_x_loc [15:0] $end
  $var wire 16 C! out_y_loc [15:0] $end
  $var wire  3 j! raster_mem_rsp_tag [2:0] $end
  $var wire  4 A! raster_slice_ready [3:0] $end
  $var wire  1 T! ready $end
  $var wire  1 8! reset $end
  $var wire 16 :! x_loc [15:0] $end
  $var wire 16 ;! y_loc [15:0] $end
  $scope module VX_raster_req_switch $end
   $var wire 32 n! RASTER_RS_DATA_WIDTH [31:0] $end
   $var wire 32 o! RASTER_RS_INDEX_BITS [31:0] $end
   $var wire 32 l! RASTER_RS_SIZE [31:0] $end
   $var wire 32 m! RASTER_SLICE_BITS [31:0] $end
   $var wire 32 k! RASTER_SLICE_NUM [31:0] $end
   $var wire  1 7! clk $end
   $var wire 32 <! edge_func_val(0) [31:0] $end
   $var wire 32 =! edge_func_val(1) [31:0] $end
   $var wire 32 >! edge_func_val(2) [31:0] $end
   $var wire  1 9! input_valid $end
   $var wire 32 ?! mem_base_addr [31:0] $end
   $var wire 32 X! mem_req_addr(0) [31:0] $end
   $var wire 32 Y! mem_req_addr(1) [31:0] $end
   $var wire 32 Z! mem_req_addr(2) [31:0] $end
   $var wire 32 [! mem_req_addr(3) [31:0] $end
   $var wire 32 \! mem_req_addr(4) [31:0] $end
   $var wire 32 ]! mem_req_addr(5) [31:0] $end
   $var wire 32 ^! mem_req_addr(6) [31:0] $end
   $var wire 32 _! mem_req_addr(7) [31:0] $end
   $var wire 32 `! mem_req_addr(8) [31:0] $end
   $var wire  1 V! mem_req_ready $end
   $var wire  1 U! mem_req_valid $end
   $var wire 32 a! mem_rsp_data(0) [31:0] $end
   $var wire 32 b! mem_rsp_data(1) [31:0] $end
   $var wire 32 c! mem_rsp_data(2) [31:0] $end
   $var wire 32 d! mem_rsp_data(3) [31:0] $end
   $var wire 32 e! mem_rsp_data(4) [31:0] $end
   $var wire 32 f! mem_rsp_data(5) [31:0] $end
   $var wire 32 g! mem_rsp_data(6) [31:0] $end
   $var wire 32 h! mem_rsp_data(7) [31:0] $end
   $var wire 32 i! mem_rsp_data(8) [31:0] $end
   $var wire  1 W! mem_rsp_valid $end
   $var wire 32 @! mem_stride [31:0] $end
   $var wire 32 M! out_edge_func_val(0) [31:0] $end
   $var wire 32 N! out_edge_func_val(1) [31:0] $end
   $var wire 32 O! out_edge_func_val(2) [31:0] $end
   $var wire 32 D! out_edges(0)(0) [31:0] $end
   $var wire 32 E! out_edges(0)(1) [31:0] $end
   $var wire 32 F! out_edges(0)(2) [31:0] $end
   $var wire 32 G! out_edges(1)(0) [31:0] $end
   $var wire 32 H! out_edges(1)(1) [31:0] $end
   $var wire 32 I! out_edges(1)(2) [31:0] $end
   $var wire 32 J! out_edges(2)(0) [31:0] $end
   $var wire 32 K! out_edges(2)(1) [31:0] $end
   $var wire 32 L! out_edges(2)(2) [31:0] $end
   $var wire 32 P! out_extents(0) [31:0] $end
   $var wire 32 Q! out_extents(1) [31:0] $end
   $var wire 32 R! out_extents(2) [31:0] $end
   $var wire  2 S! out_slice_index [1:0] $end
   $var wire 16 B! out_x_loc [15:0] $end
   $var wire 16 C! out_y_loc [15:0] $end
   $var wire  3 j! raster_mem_rsp_tag [2:0] $end
   $var wire 416 ( raster_rs(0) [415:0] $end
   $var wire 416 5 raster_rs(1) [415:0] $end
   $var wire 416 B raster_rs(2) [415:0] $end
   $var wire 416 O raster_rs(3) [415:0] $end
   $var wire 416 \ raster_rs(4) [415:0] $end
   $var wire 416 i raster_rs(5) [415:0] $end
   $var wire 416 v raster_rs(6) [415:0] $end
   $var wire 416 %! raster_rs(7) [415:0] $end
   $var wire  8 3! raster_rs_empty [7:0] $end
   $var wire  3 # raster_rs_empty_index [2:0] $end
   $var wire  3 $ raster_rs_index [2:0] $end
   $var wire  8 2! raster_rs_valid [7:0] $end
   $var wire  4 A! raster_slice_ready [3:0] $end
   $var wire  1 T! ready $end
   $var wire  1 8! reset $end
   $var wire  1 % valid_raster_index $end
   $var wire  1 ' valid_rs_empty_index $end
   $var wire  1 & valid_rs_index $end
   $var wire 16 :! x_loc [15:0] $end
   $var wire 16 ;! y_loc [15:0] $end
   $scope module unnamedblk1 $end
    $var wire 32 4! i [31:0] $end
   $upscope $end
   $scope module unnamedblk2 $end
    $var wire 32 5! i [31:0] $end
    $scope module unnamedblk3 $end
     $var wire 32 6! j [31:0] $end
    $upscope $end
   $upscope $end
  $upscope $end
 $upscope $end
$enddefinitions $end


#10
b111 #
b111 $
0%
0&
0'
b00000000000000000000000000000000000000000000000000000000000000000000000000000000000000000000000000000000000000000000000000000000000000000000000000000000000000000000000000000000000000000000000000000000000000000000000000000000000000000000000000000000000000000000000000000000000000000000000000000000000000000000000000000000000000000000000000000000000000000000000000000000000000000000000000000000000000000000000000000000 (
b00000000000000000000000000000000000000000000000000000000000000000000000000000000000000000000000000000000000000000000000000000000000000000000000000000000000000000000000000000000000000000000000000000000000000000000000000000000000000000000000000000000000000000000000000000000000000000000000000000000000000000000000000000000000000000000000000000000000000000000000000000000000000000000000000000000000000000000000000000000 5
b00000000000000000000000000000000000000000000000000000000000000000000000000000000000000000000000000000000000000000000000000000000000000000000000000000000000000000000000000000000000000000000000000000000000000000000000000000000000000000000000000000000000000000000000000000000000000000000000000000000000000000000000000000000000000000000000000000000000000000000000000000000000000000000000000000000000000000000000000000000 B
b00000000000000000000000000000000000000000000000000000000000000000000000000000000000000000000000000000000000000000000000000000000000000000000000000000000000000000000000000000000000000000000000000000000000000000000000000000000000000000000000000000000000000000000000000000000000000000000000000000000000000000000000000000000000000000000000000000000000000000000000000000000000000000000000000000000000000000000000000000000 O
b00000000000000000000000000000000000000000000000000000000000000000000000000000000000000000000000000000000000000000000000000000000000000000000000000000000000000000000000000000000000000000000000000000000000000000000000000000000000000000000000000000000000000000000000000000000000000000000000000000000000000000000000000000000000000000000000000000000000000000000000000000000000000000000000000000000000000000000000000000000 \
b00000000000000000000000000000000000000000000000000000000000000000000000000000000000000000000000000000000000000000000000000000000000000000000000000000000000000000000000000000000000000000000000000000000000000000000000000000000000000000000000000000000000000000000000000000000000000000000000000000000000000000000000000000000000000000000000000000000000000000000000000000000000000000000000000000000000000000000000000000000 i
b00000000000000000000000000000000000000000000000000000000000000000000000000000000000000000000000000000000000000000000000000000000000000000000000000000000000000000000000000000000000000000000000000000000000000000000000000000000000000000000000000000000000000000000000000000000000000000000000000000000000000000000000000000000000000000000000000000000000000000000000000000000000000000000000000000000000000000000000000000000 v
b00000000000000000000000000000000000000000000000000000000000000000000000000000000000000000000000000000000000000000000000000000000000000000000000000000000000000000000000000000000000000000000000000000000000000000000000000000000000000000000000000000000000000000000000000000000000000000000000000000000000000000000000000000000000000000000000000000000000000000000000000000000000000000000000000000000000000000000000000000000 %!
b00000000 2!
b00000000 3!
b00000000000000000000000000000000 4!
b00000000000000000000000000000000 5!
b00000000000000000000000000000000 6!
07!
08!
09!
b0000000000000000 :!
b0000000000000000 ;!
b00000000000000000000000000000000 <!
b00000000000000000000000000000000 =!
b00000000000000000000000000000000 >!
b00000000000000000000000000000000 ?!
b00000000000000000000000000000000 @!
b0000 A!
b0000000000000000 B!
b0000000000000000 C!
b00000000000000000000000000000000 D!
b00000000000000000000000000000000 E!
b00000000000000000000000000000000 F!
b00000000000000000000000000000000 G!
b00000000000000000000000000000000 H!
b00000000000000000000000000000000 I!
b00000000000000000000000000000000 J!
b00000000000000000000000000000000 K!
b00000000000000000000000000000000 L!
b00000000000000000000000000000000 M!
b00000000000000000000000000000000 N!
b00000000000000000000000000000000 O!
b00000000000000000000000000000000 P!
b00000000000000000000000000000000 Q!
b00000000000000000000000000000000 R!
b11 S!
0T!
0U!
0V!
0W!
b00000000000000000000000000000000 X!
b00000000000000000000000000000000 Y!
b00000000000000000000000000000000 Z!
b00000000000000000000000000000000 [!
b00000000000000000000000000000000 \!
b00000000000000000000000000000000 ]!
b00000000000000000000000000000000 ^!
b00000000000000000000000000000000 _!
b00000000000000000000000000000000 `!
b00000000000000000000000000000000 a!
b00000000000000000000000000000000 b!
b00000000000000000000000000000000 c!
b00000000000000000000000000000000 d!
b00000000000000000000000000000000 e!
b00000000000000000000000000000000 f!
b00000000000000000000000000000000 g!
b00000000000000000000000000000000 h!
b00000000000000000000000000000000 i!
b000 j!
b00000000000000000000000000000100 k!
b00000000000000000000000000001000 l!
b00000000000000000000000000000010 m!
b00000000000000000000000110100000 n!
b00000000000000000000000000000011 o!
#20
17!
#30
07!
18!
1V!
#40
b000 #
1'
b11111111 3!
b00000000000000000000000000001000 4!
17!
1T!
#50
07!
08!
19!
b0000000100000000 ;!
b00000000000000000000001000000110 <!
b00000000000000001010011111100000 =!
b00000000000000000000000000001010 ?!
b00000000000000000000000000000001 @!
#60
b001 #
b00000000000000000000000100000000000000000000000000000010000001100000000000000000101001111110000000000000000000000000000000000000000000000000000000000000000000000000000000000000000000000000000000000000000000000000000000000000000000000000000000000000000000000000000000000000000000000000000000000000000000000000000000000000000000000000000000000000000000000000000000000000000000000000000000000000000000000000000000000000 (
b11111110 3!
b00000000000000000000000000000011 5!
b00000000000000000000000000000011 6!
17!
1U!
b00000000000000000000000000001010 X!
b00000000000000000000000000001011 Y!
b00000000000000000000000000001100 Z!
b00000000000000000000000000001101 [!
b00000000000000000000000000001110 \!
b00000000000000000000000000001111 ]!
b00000000000000000000000000010000 ^!
b00000000000000000000000000010001 _!
b00000000000000000000000000010010 `!
#70
1%
07!
b0001 A!
b00 S!
1W!
#80
b010 #
b000 $
1&
b00000000000000000000000100000000000000000000000000000010000001100000000000000000101001111110000000000000000000000000000000000000000000000000000000000000000000000000000000000000000000000000000000000000000000000000000000000000000000000000000000000000000000000000000000000000000000000000000000000000000000000000000000000000000000000000000000000000000000000000000000000000000000000000000000000000000000000000000000000000 5
b00000001 2!
b11111100 3!
17!
#90
07!
b0100 A!
b10 S!
b001 j!
#100
b000 #
b111 $
0&
b00000000000000000000000100000000000000000000000000000010000001100000000000000000101001111110000000000000000000000000000000000000000000000000000000000000000000000000000000000000000000000000000000000000000000000000000000000000000000000000000000000000000000000000000000000000000000000000000000000000000000000000000000000000000000000000000000000000000000000000000000000000000000000000000000000000000000000000000000000000 B
b00000000 2!
b11111011 3!
17!
b0000000100000000 C!
b00000000000000000000001000000110 M!
b00000000000000001010011111100000 N!
#110
07!
#120
b001 #
b001 $
1&
b00000010 2!
b11111010 3!
17!
#130
07!
#140
b111 $
0&
b00000000 2!
17!
#150
07!
#160
b011 #
b001 $
1&
b00000010 2!
b11111000 3!
17!
#170
07!
#180
b001 #
b111 $
0&
b00000000000000000000000100000000000000000000000000000010000001100000000000000000101001111110000000000000000000000000000000000000000000000000000000000000000000000000000000000000000000000000000000000000000000000000000000000000000000000000000000000000000000000000000000000000000000000000000000000000000000000000000000000000000000000000000000000000000000000000000000000000000000000000000000000000000000000000000000000000 O
b00000000 2!
b11110010 3!
17!
#190
07!
#200
b100 #
b001 $
1&
b00000010 2!
b11110000 3!
17!
#210
07!
#220
b001 #
b111 $
0&
b00000000000000000000000100000000000000000000000000000010000001100000000000000000101001111110000000000000000000000000000000000000000000000000000000000000000000000000000000000000000000000000000000000000000000000000000000000000000000000000000000000000000000000000000000000000000000000000000000000000000000000000000000000000000000000000000000000000000000000000000000000000000000000000000000000000000000000000000000000000 \
b00000000 2!
b11100010 3!
17!
#230
07!
#240
b101 #
b001 $
1&
b00000010 2!
b11100000 3!
17!
#250
07!
#260
b001 #
b111 $
0&
b00000000000000000000000100000000000000000000000000000010000001100000000000000000101001111110000000000000000000000000000000000000000000000000000000000000000000000000000000000000000000000000000000000000000000000000000000000000000000000000000000000000000000000000000000000000000000000000000000000000000000000000000000000000000000000000000000000000000000000000000000000000000000000000000000000000000000000000000000000000 i
b00000000 2!
b11000010 3!
17!
#270
07!
#280
b110 #
b001 $
1&
b00000010 2!
b11000000 3!
17!
